<svg xmlns="http://www.w3.org/2000/svg" width="829" height="236" viewBox="0 0 829 236">
  <text id="Blue_Paisley" data-name="Blue Paisley" transform="translate(9 187)" fill="#707070" font-size="202" font-family="MADESAONARA2, 'MADE SAONARA \32 '"><tspan x="0" y="0">Blue Paisley</tspan></text>
</svg>
